C:\rx7-java-dev\oces\src\main\java\rx7\onboard\computer\electrical\system\components\Indicator.java
C:\rx7-java-dev\oces\src\main\java\rx7\onboard\computer\electrical\system\components\Component.java
C:\rx7-java-dev\oces\src\main\java\rx7\onboard\computer\electrical\system\main\Launcher.java
C:\rx7-java-dev\oces\src\main\java\rx7\onboard\computer\electrical\system\modules\Request.java
C:\rx7-java-dev\oces\src\main\java\rx7\onboard\computer\electrical\system\modules\Module.java
C:\rx7-java-dev\oces\src\main\java\rx7\onboard\computer\electrical\system\components\Functionable.java
C:\rx7-java-dev\oces\src\main\java\rx7\onboard\computer\electrical\system\comms\PeripheralRestfulClient.java
C:\rx7-java-dev\oces\src\main\java\rx7\onboard\computer\electrical\system\mainscreen\Controller.java
C:\rx7-java-dev\oces\src\main\java\rx7\onboard\computer\electrical\system\service\MessageProcessor.java
C:\rx7-java-dev\oces\src\main\java\rx7\onboard\computer\electrical\system\main\Configuration.java
C:\rx7-java-dev\oces\src\main\java\rx7\onboard\computer\electrical\system\modules\TurnOffModule.java
C:\rx7-java-dev\oces\src\main\java\rx7\onboard\computer\electrical\system\comms\MasterRestfulServer.java
C:\rx7-java-dev\oces\src\main\java\rx7\onboard\computer\electrical\system\constants\Constants.java
C:\rx7-java-dev\oces\src\main\java\rx7\onboard\computer\electrical\system\modules\TurnOnModule.java
C:\rx7-java-dev\oces\src\main\java\rx7\onboard\computer\electrical\system\modules\TestMain.java
C:\rx7-java-dev\oces\src\main\java\rx7\onboard\computer\electrical\system\comms\PeripheralRestfulServer.java
C:\rx7-java-dev\oces\src\main\java\rx7\onboard\computer\electrical\system\lockscreen\LockScreen.java
C:\rx7-java-dev\oces\src\main\java\rx7\onboard\computer\electrical\system\components\Switch.java
C:\rx7-java-dev\oces\src\main\java\rx7\onboard\computer\electrical\system\mainscreen\MasterScreen.java
C:\rx7-java-dev\oces\src\main\java\rx7\onboard\computer\electrical\system\mainscreen\PheripheralScreen.java
C:\rx7-java-dev\oces\src\main\java\rx7\onboard\computer\electrical\system\main\App.java
C:\rx7-java-dev\oces\src\main\java\rx7\onboard\computer\electrical\system\comms\MasterRestfulClient.java
C:\rx7-java-dev\oces\src\main\java\rx7\onboard\computer\electrical\system\components\TurnSignalModule.java
C:\rx7-java-dev\oces\src\main\java\rx7\onboard\computer\electrical\system\modules\ModuleController.java
C:\rx7-java-dev\oces\src\main\java\rx7\onboard\computer\electrical\system\components\Loggable.java
C:\rx7-java-dev\oces\src\main\java\rx7\onboard\computer\electrical\system\main\ServletInitializer.java
C:\rx7-java-dev\oces\src\main\java\rx7\onboard\computer\electrical\system\domain\Message.java
